<svg xmlns="http://www.w3.org/2000/svg" xmlns:xlink="http://www.w3.org/1999/xlink" preserveAspectRatio="xMidYMid" width="48" height="44" viewBox="0 0 48 44">
  <defs>
    <style>
      .cls-1 {
        fill: #ffc30b;
        fill-rule: evenodd;
      }
    </style>
  </defs>
  <path d="M44.418,44.000 L3.582,44.000 C1.576,44.000 -0.000,42.434 -0.000,40.440 L-0.000,8.116 C-0.000,6.123 1.994,4.000 4.000,4.000 L8.000,4.000 L8.597,1.994 C8.597,0.926 9.457,0.000 10.603,0.000 L13.469,0.000 C14.543,0.000 15.475,0.854 15.475,1.994 L16.000,4.000 L32.000,4.000 L32.812,1.994 C32.812,0.926 33.672,0.000 34.818,0.000 L37.684,0.000 C38.758,0.000 39.690,0.854 39.690,1.994 L40.000,4.000 L44.000,4.000 C46.006,4.000 48.000,6.123 48.000,8.116 L48.000,40.440 C48.000,42.434 46.424,44.000 44.418,44.000 ZM45.851,8.045 C45.851,7.262 45.206,6.621 44.418,6.621 L39.546,6.621 L39.546,8.544 C39.546,9.612 38.687,10.537 37.540,10.537 L34.675,10.537 C33.600,10.537 32.669,9.683 32.669,8.544 L32.669,6.621 L15.403,6.621 L15.403,8.544 C15.403,9.612 14.543,10.537 13.397,10.537 L10.531,10.537 C9.457,10.537 8.525,9.683 8.525,8.544 L8.525,6.692 L3.582,6.692 C2.794,6.692 2.149,7.333 2.149,8.045 L2.149,13.812 L45.851,13.812 L45.851,8.045 ZM45.851,16.019 L2.149,16.019 L2.149,39.369 C2.149,40.152 2.794,40.793 3.582,40.793 L44.418,40.793 C45.206,40.793 45.851,40.223 45.851,39.440 L45.851,16.019 ZM35.955,37.000 L32.543,37.000 C31.986,37.000 31.499,35.426 31.499,34.800 C31.499,34.175 31.986,33.628 32.543,33.628 L35.955,33.628 C36.582,33.628 37.000,34.175 37.000,34.800 C37.000,35.426 36.513,37.000 35.955,37.000 ZM35.955,30.186 L32.543,30.186 C31.986,30.186 31.499,28.611 31.499,27.986 C31.499,27.361 31.986,26.814 32.543,26.814 L35.955,26.814 C36.582,26.814 37.000,27.361 37.000,27.986 C37.000,28.611 36.513,30.186 35.955,30.186 ZM35.955,23.372 L32.543,23.372 C31.986,23.372 31.499,21.797 31.499,21.172 C31.499,20.547 31.986,20.000 32.543,20.000 L35.955,20.000 C36.582,20.000 37.000,20.547 37.000,21.172 C37.000,21.797 36.513,23.372 35.955,23.372 ZM26.206,37.000 L22.794,37.000 C22.237,37.000 21.749,35.426 21.749,34.800 C21.749,34.175 22.237,33.628 22.794,33.628 L26.206,33.628 C26.833,33.628 27.251,34.175 27.251,34.800 C27.251,35.426 26.763,37.000 26.206,37.000 ZM26.206,30.186 L22.794,30.186 C22.237,30.186 21.749,28.611 21.749,27.986 C21.749,27.361 22.237,26.814 22.794,26.814 L26.206,26.814 C26.833,26.814 27.251,27.361 27.251,27.986 C27.251,28.611 26.763,30.186 26.206,30.186 ZM26.206,23.372 L22.794,23.372 C22.237,23.372 21.749,21.797 21.749,21.172 C21.749,20.547 22.237,20.000 22.794,20.000 L26.206,20.000 C26.833,20.000 27.251,20.547 27.251,21.172 C27.251,21.797 26.763,23.372 26.206,23.372 ZM16.457,37.000 L13.044,37.000 C12.487,37.000 12.000,35.426 12.000,34.800 C12.000,34.175 12.487,33.628 13.044,33.628 L16.457,33.628 C17.084,33.628 17.501,34.175 17.501,34.800 C17.501,35.426 17.014,37.000 16.457,37.000 ZM16.457,30.186 L13.044,30.186 C12.487,30.186 12.000,28.611 12.000,27.986 C12.000,27.361 12.487,26.814 13.044,26.814 L16.457,26.814 C17.084,26.814 17.501,27.361 17.501,27.986 C17.501,28.611 17.014,30.186 16.457,30.186 ZM16.457,23.372 L13.044,23.372 C12.487,23.372 12.000,21.797 12.000,21.172 C12.000,20.547 12.487,20.000 13.044,20.000 L16.457,20.000 C17.084,20.000 17.501,20.547 17.501,21.172 C17.501,21.797 17.014,23.372 16.457,23.372 Z" class="cls-1"/>
</svg>
