<svg xmlns="http://www.w3.org/2000/svg" xmlns:xlink="http://www.w3.org/1999/xlink" preserveAspectRatio="xMidYMid" width="106" height="128" viewBox="0 0 106 128">
  <defs>
    <style>
      .cls-1 {
        fill: #3d2f00;
        fill-rule: evenodd;
      }
    </style>
  </defs>
  <path d="M72.910,26.137 C72.088,25.782 70.808,27.377 70.463,28.178 C70.117,28.981 70.485,29.912 71.283,30.261 C89.565,38.214 101.849,56.088 101.849,74.741 C101.849,86.671 97.353,97.761 90.021,106.380 L89.539,105.708 C87.153,102.379 79.072,90.341 77.298,87.398 L77.621,87.398 C78.332,87.398 78.907,86.821 78.907,86.108 L78.907,77.077 C78.907,76.364 78.332,75.787 77.621,75.787 L70.742,75.787 C68.973,71.803 67.609,68.428 66.531,65.368 C67.002,65.177 67.335,64.718 67.335,64.176 L67.335,55.145 C67.335,54.433 66.760,53.855 66.049,53.855 L61.686,53.855 C59.823,45.048 58.773,35.945 58.557,26.762 L59.620,26.762 C60.331,26.762 60.906,26.184 60.906,25.472 L60.906,16.441 C60.906,15.728 60.331,15.151 59.620,15.151 L58.061,15.151 C57.585,13.331 56.147,11.910 54.319,11.475 L54.319,1.280 C54.319,0.568 53.743,-0.010 53.033,-0.010 C52.323,-0.010 51.747,0.568 51.747,1.280 L51.747,11.546 C50.028,12.043 48.688,13.410 48.233,15.151 L46.762,15.151 C46.053,15.151 45.477,15.728 45.477,16.441 L45.477,25.472 C45.477,26.184 46.053,26.762 46.762,26.762 L47.853,26.762 C47.637,35.946 46.584,45.050 44.720,53.855 L40.333,53.855 C39.624,53.855 39.048,54.433 39.048,55.145 L39.048,64.176 C39.048,64.718 39.381,65.177 39.851,65.368 C38.766,68.453 37.402,71.826 35.642,75.787 L28.761,75.787 C28.052,75.787 27.476,76.364 27.476,77.077 L27.476,86.108 C27.476,86.821 28.052,87.398 28.761,87.398 L29.079,87.398 C27.253,90.434 18.677,102.645 15.996,106.356 C8.653,97.741 4.152,86.660 4.152,74.741 C4.152,56.107 16.435,38.233 34.718,30.259 C35.517,29.911 35.883,28.978 35.537,28.176 C35.191,27.375 33.901,25.781 33.090,26.137 C13.297,34.793 -0.000,54.260 -0.000,74.579 C-0.000,103.542 24.309,128.011 53.082,128.011 C82.262,128.011 106.000,104.041 106.000,74.579 C106.000,54.239 92.703,34.774 72.910,26.137 ZM46.159,75.787 C47.846,71.931 49.196,68.523 50.244,65.466 L51.377,65.466 C50.298,68.516 48.928,71.914 47.208,75.787 L46.159,75.787 ZM53.191,68.016 C54.076,70.390 55.137,72.977 56.366,75.787 L50.017,75.787 C51.247,72.973 52.308,70.388 53.191,68.016 ZM59.174,75.787 C57.457,71.922 56.088,68.522 55.005,65.466 L56.137,65.466 C57.189,68.530 58.539,71.937 60.223,75.787 L59.174,75.787 ZM63.031,75.787 C61.315,71.922 59.946,68.522 58.864,65.466 L63.844,65.466 C64.893,68.530 66.210,71.864 67.929,75.787 L63.031,75.787 ZM53.146,13.905 C54.068,13.905 54.868,14.409 55.309,15.151 L50.982,15.151 C51.425,14.409 52.224,13.905 53.146,13.905 ZM48.048,17.731 L58.334,17.731 L58.334,24.181 L48.048,24.181 L48.048,17.731 ZM50.426,26.762 L55.984,26.762 C56.196,35.940 57.231,45.040 59.062,53.855 L47.345,53.855 C49.177,45.039 50.213,35.940 50.426,26.762 ZM41.619,56.435 L64.763,56.435 L64.763,62.886 L41.619,62.886 L41.619,56.435 ZM42.538,65.466 L47.520,65.466 C46.441,68.516 45.070,71.914 43.351,75.787 L38.456,75.787 C40.164,71.888 41.482,68.555 42.538,65.466 ZM30.047,78.367 L76.335,78.367 L76.335,84.818 L30.047,84.818 L30.047,78.367 ZM28.766,117.106 C28.870,117.020 28.990,116.957 29.072,116.841 C32.882,111.459 40.270,97.486 44.220,95.712 C41.707,98.301 35.933,113.303 32.994,119.334 C31.548,118.660 30.137,117.915 28.766,117.106 ZM35.897,120.580 C41.521,109.091 48.517,93.849 53.191,93.849 C57.809,93.849 64.415,109.104 70.116,120.618 C64.783,122.691 59.038,123.842 53.080,123.842 C47.069,123.842 41.273,122.677 35.897,120.580 ZM73.020,119.371 C70.102,113.452 64.738,98.469 62.274,95.882 C66.165,97.710 73.226,111.719 76.937,116.854 C77.024,116.975 77.139,117.055 77.249,117.142 C75.878,117.953 74.468,118.696 73.020,119.371 ZM79.747,115.573 C79.701,115.370 79.616,115.172 79.485,114.991 C72.437,105.239 61.577,91.269 53.191,91.269 C44.564,91.269 33.513,105.105 26.504,115.004 C26.387,115.169 26.315,115.351 26.269,115.535 C23.338,113.561 20.625,111.280 18.169,108.745 C21.417,104.249 29.919,91.171 32.066,87.398 L74.315,87.398 C76.326,90.933 84.206,103.684 86.984,107.560 L87.853,108.773 C85.396,111.314 82.679,113.598 79.747,115.573 ZM62.192,59.015 L62.192,60.305 C62.192,61.019 61.617,61.596 60.906,61.596 C60.195,61.596 59.620,61.019 59.620,60.305 L59.620,59.015 C59.620,58.302 60.195,57.725 60.906,57.725 C61.617,57.725 62.192,58.302 62.192,59.015 ZM58.334,59.015 L58.334,60.305 C58.334,61.019 57.760,61.596 57.049,61.596 C56.338,61.596 55.763,61.019 55.763,60.305 L55.763,59.015 C55.763,58.302 56.338,57.725 57.049,57.725 C57.760,57.725 58.334,58.302 58.334,59.015 ZM54.477,59.015 L54.477,60.305 C54.477,61.019 53.901,61.596 53.191,61.596 C52.481,61.596 51.905,61.019 51.905,60.305 L51.905,59.015 C51.905,58.302 52.481,57.725 53.191,57.725 C53.901,57.725 54.477,58.302 54.477,59.015 ZM50.620,59.015 L50.620,60.305 C50.620,61.019 50.044,61.596 49.334,61.596 C48.624,61.596 48.048,61.019 48.048,60.305 L48.048,59.015 C48.048,58.302 48.624,57.725 49.334,57.725 C50.044,57.725 50.620,58.302 50.620,59.015 ZM57.049,20.311 L57.049,21.596 C57.049,22.308 56.474,22.886 55.763,22.886 C55.052,22.886 54.477,22.308 54.477,21.596 L54.477,20.311 C54.477,19.599 55.052,19.021 55.763,19.021 C56.474,19.021 57.049,19.599 57.049,20.311 ZM51.905,20.311 L51.905,21.596 C51.905,22.308 51.329,22.886 50.620,22.886 C49.910,22.886 49.334,22.308 49.334,21.596 L49.334,20.311 C49.334,19.599 49.910,19.021 50.620,19.021 C51.329,19.021 51.905,19.599 51.905,20.311 ZM46.762,59.015 L46.762,60.305 C46.762,61.019 46.186,61.596 45.477,61.596 C44.767,61.596 44.191,61.019 44.191,60.305 L44.191,59.015 C44.191,58.302 44.767,57.725 45.477,57.725 C46.186,57.725 46.762,58.302 46.762,59.015 Z" class="cls-1"/>
</svg>
