<?xml version="1.0" standalone="no"?>
<!DOCTYPE svg PUBLIC "-//W3C//DTD SVG 1.1//EN" "http://www.w3.org/Graphics/SVG/1.1/DTD/svg11.dtd" >
<svg xmlns="http://www.w3.org/2000/svg">
<metadata>Generated by IcoMoon</metadata>
<defs>
<font id="icomoon" horiz-adv-x="1024">
<font-face units-per-em="1024" ascent="960" descent="-64" />
<missing-glyph horiz-adv-x="1024" />
<glyph unicode="&#x20;" horiz-adv-x="512" d="" />
<glyph unicode="&#xe900;" glyph-name="arrowdonw" horiz-adv-x="1396" d="M697.437 256.791c235.148 232.355 464.337 470.388 698.461 703.209 0-165.423 0-138.054 0.465-303.476-233.1-239.988-464.337-481.466-698.461-720.524-233.1 239.523-464.803 480.535-697.903 720.524 0.465 164.957 0 137.495 0.465 302.545 234.589-232.355 463.872-468.992 696.972-702.278z" />
<glyph unicode="&#xe902;" glyph-name="bigpin" horiz-adv-x="786" d="M393.502 298.782c48.009 0 87.064 39.674 87.064 88.469 0 48.771-39.055 88.469-87.064 88.469s-87.064-39.698-87.064-88.469c0-48.795 39.055-88.469 87.064-88.469zM393.502 453.001c35.673 0 64.703-29.505 64.703-65.75s-29.029-65.727-64.703-65.727c-35.673 0-64.703 29.482-64.703 65.727s29.029 65.75 64.703 65.75zM373.641 382.893c0 6.644 3.215 12.502 8.097 16.193v29.744c0 6.287 5.025 11.359 11.193 11.359s11.193-5.072 11.193-11.359v-28.934c5.525-3.572 9.24-9.835 9.24-17.003 0-11.121-8.906-20.17-19.861-20.17s-19.861 9.049-19.861 20.17zM540.529 695.379c-6.073 2.643-21.194-20.623-23.647-26.386s0.167-12.431 5.834-14.931c129.762-57.082 216.969-185.344 216.969-319.178 0-155.743-105.424-291.745-246.093-336.634v257.072h22.385c6.168 0 11.169 5.072 11.169 11.359v227.328h22.385c6.168 0 11.169 5.096 11.169 11.359v34.102c0 6.263-5.001 11.359-11.169 11.359h-33.554v45.461c6.168 0 11.169 5.096 11.169 11.383 0 6.263-5.001 11.359-11.169 11.359h-17.741l-41.46 42.127c-2.096 2.143-4.953 3.334-7.93 3.334v45.461c0.095-0.024 0.191 0 0.238 0 6.192 0 11.193 5.096 11.193 11.359 0 2.596-0.857 5.001-2.31 6.93l-53.272 108.258v112.14c0 6.263-5.001 11.359-11.193 11.359s-11.193-5.096-11.193-11.359v-109.806l-55.32-112.426c-1.738-3.524-1.548-7.716 0.5-11.073 2.048-3.334 5.62-5.382 9.526-5.382v-45.461c-2.977 0-5.834-1.191-7.93-3.334l-41.46-42.127h-17.741c-6.168 0-11.169-5.096-11.169-11.359 0-6.287 5.001-11.383 11.169-11.383v-45.461h-33.554c-6.168 0-11.169-5.096-11.169-11.359v-34.102c0-6.263 5.001-11.359 11.169-11.359h22.385v-227.328c0-6.287 5.001-11.359 11.169-11.359h22.385v-256.833c-140.717 45.151-246.093 180.962-246.093 336.396 0 133.715 87.207 261.977 216.993 319.178 5.668 2.5 8.263 9.192 5.811 14.955-2.477 5.739-17.646 29.029-23.671 26.362-146.742-64.512-245.308-209.634-245.308-361.091 0-215.897 180.224-398.288 393.549-398.288 216.326 0 392.311 178.676 392.311 398.288 0 151.623-98.59 296.722-245.331 361.091zM392.93 809.567l37.817-76.871h-75.657l37.84 76.871zM359.376 709.953h67.108v-45.461h-67.108v45.461zM341.635 641.75h102.591l22.361-22.719h-147.313l22.361 22.719zM292.269 596.289h201.323v-45.461h-201.323v45.461zM247.522 528.11h290.816v-11.383h-290.816v11.383zM281.076 494.009h223.708v-215.945l-201.323 0.119c-0.214 0-0.405-0.119-0.619-0.119h-21.766v215.945zM314.63 255.321h156.601v-261.406c0-0.643 0.262-1.191 0.357-1.81-7.501-1.834-15.074-3.453-22.742-4.787v108.877c0 6.287-5.001 11.383-11.169 11.383-6.192 0-11.193-5.096-11.193-11.383v-111.926c-7.382-0.762-14.86-1.191-22.361-1.429v113.354c0 6.287-5.025 11.383-11.193 11.383s-11.193-5.096-11.193-11.383v-113.331c-7.501 0.262-14.979 0.691-22.361 1.476v111.854c0 6.287-5.025 11.383-11.193 11.383s-11.169-5.096-11.169-11.383v-108.663c-7.549 1.31-15.003 2.881-22.385 4.715v263.073zM426.484 130.298v107.925c0 6.287 5.001 11.359 11.193 11.359 6.168 0 11.169-5.072 11.169-11.359v-107.925c0-6.287-5.001-11.359-11.169-11.359-6.192 0-11.193 5.072-11.193 11.359zM381.738 130.298v107.925c0 6.287 5.025 11.359 11.193 11.359s11.193-5.072 11.193-11.359v-107.925c0-6.287-5.025-11.359-11.193-11.359s-11.193 5.072-11.193 11.359zM337.015 130.298v107.925c0 6.287 5.001 11.359 11.169 11.359s11.193-5.072 11.193-11.359v-107.925c0-6.287-5.025-11.359-11.193-11.359s-11.169 5.072-11.169 11.359zM471.231 581.525v-15.812c0-6.263-5.001-11.359-11.193-11.359s-11.193 5.096-11.193 11.359v15.812c0 6.287 5.001 11.383 11.193 11.383s11.193-5.096 11.193-11.383zM437.677 581.525v-15.812c0-6.263-5.001-11.359-11.193-11.359s-11.193 5.096-11.193 11.359v15.812c0 6.287 5.001 11.383 11.193 11.383s11.193-5.096 11.193-11.383zM404.123 581.525v-15.812c0-6.263-5.025-11.359-11.193-11.359s-11.193 5.096-11.193 11.359v15.812c0 6.287 5.025 11.383 11.193 11.383s11.193-5.096 11.193-11.383zM370.569 581.525v-15.812c0-6.263-5.025-11.359-11.193-11.359s-11.193 5.096-11.193 11.359v15.812c0 6.287 5.025 11.383 11.193 11.383s11.193-5.096 11.193-11.383zM337.015 581.525v-15.812c0-6.263-5.025-11.359-11.193-11.359s-11.193 5.096-11.193 11.359v15.812c0 6.287 5.025 11.383 11.193 11.383s11.193-5.096 11.193-11.383z" />
<glyph unicode="&#xe903;" glyph-name="cairotowr" horiz-adv-x="806" d="M403.696-64.044c-218.831 0-403.696 178.83-403.696 390.493 0 148.502 101.115 290.772 251.643 354.021 6.166 2.614 20.654-8.758 23.182-14.51 2.549-5.73-0.153-12.419-6.013-14.924-134.253-57.17-224.452-185.344-224.452-318.965 0-85.471 33.051-164.908 86.975-226.696h0.632c3.747-6.732 78.238-77.584 152.532-104.492 18.606-6.645 37.888-11.83 57.649-15.382-0.044 193.754 0.065 387.551-0.065 581.327-12.811 11.286-41.962 27.692-58.847 44.577 0.719 0.937 21.046 20.829 21.787 21.787 6.231-5.643 26.842-33.596 32.376-39.958 8.432 6.885 16.014 14.75 24.968 20.981 4.118 1.787 7.364 4.837 10.61 7.822-10.523 0.305-21.090 0.131-31.591 0.153-0.523 6.536-0.588 13.094-0.327 19.63 41.635 1.111 83.358 0.479 125.015 0.327 0.654-6.602 0.588-13.334 0.044-19.935-8.715-0.022-17.408 0.022-26.101 0 7.604-5.534 14.292-12.114 21.134-18.519-0.937-1.024-2.832-3.050-3.769-4.096-7.255 6.188-13.9 13.116-21.874 18.432 0.37-1.089 1.198-3.246 1.59-4.314 7.778-7.582 16.253-14.401 24.249-21.787 9.194 8.148 30.546 33.16 39.762 41.265 0.893-1.111 20.872-20.676 21.787-21.787-9.412-8.279-56.516-38.062-60.002-40.742-0.022-11.417-0.022-488.818 0-585.445 21.025 3.638 41.483 9.063 61.2 16.253 75.21 26.319 147.63 99.524 150.484 103.729h0.349c53.836 61.81 86.844 141.334 86.844 226.87 0 133.752-90.199 261.926-224.452 318.943-5.861 2.506-8.562 9.194-6.013 14.946 2.527 5.752 16.929 17.103 23.182 14.51 150.528-63.118 251.643-205.366 251.643-354.021 0-215.323-180.529-390.493-402.432-390.493zM335.698 586.066c-0.566-3.203 0.806-4.728 4.096-4.51 0.697 3.159-0.675 4.641-4.096 4.51zM442.172-17.593c-13.399 12.005-26.885 23.966-40.306 35.993-13.704-11.743-27.321-23.617-40.96-35.448 14.075-1.743 28.28-2.963 42.747-2.963 13.029 0 25.84 0.98 38.52 2.418zM360.361 550.422c-4.074-3.53-8.148-7.037-12.179-10.589 0.022-11.068 0-22.114 0.022-33.182 2.353-2.135 4.771-4.27 7.233-6.384 10.327 8.933 20.654 17.844 30.981 26.777-8.693 7.822-17.386 15.556-26.058 23.378zM359.555 562.666c-1.678-3.312-0.741-4.379 2.854-3.225 1.678 3.29 0.719 4.357-2.854 3.225zM440.211 72.889c5.469 5.011 11.765 9.325 16.537 15.011 0.174 5.599 0.218 11.199-0.022 16.776-4.357 3.573-8.41 7.451-12.68 11.068-8.824-7.582-17.582-15.229-26.363-22.833 7.538-6.645 14.99-13.356 22.528-20.022zM438.555 64.305c-0.937-3.268 0.349-4.423 3.813-3.53 0.828 3.333-0.414 4.488-3.813 3.53zM456.813 73.826c0.044 1.373 0.087 4.096 0.109 5.469-4.031-3.421-8.039-6.885-12.048-10.327 0.501-0.719 1.525-2.113 2.004-2.811 3.747 2.004 6.275 5.534 9.935 7.669zM452.499 62.911c0.065-3.355 1.699-4.597 4.837-3.66-0.087 1.373-0.24 4.074-0.327 5.425-1.133-0.458-3.377-1.307-4.51-1.765zM456.748 331.090c-5.752 5.12-11.482 10.24-17.234 15.316-0.763-0.632-2.244-1.939-3.007-2.593 6.798-6.057 13.552-12.114 20.436-18.040-0.044 1.307-0.153 3.987-0.196 5.316zM456.857 361.374c-4.292-3.66-8.519-7.364-12.789-11.003 4.227-3.791 8.497-7.56 12.746-11.351 0.044 7.451 0 14.902 0.044 22.354zM430.843 487.195c-10.218-8.933-20.48-17.8-30.698-26.733 10.85-9.565 21.613-19.238 32.485-28.781 8.039 7.081 16.231 14.053 24.271 21.155-0.087 3.704-0.087 7.408-0.087 11.068-8.628 7.778-17.255 15.578-25.97 23.291zM432.063 500.311c-3.225 0.414-5.49-5.381-1.046-5.076 3.225-0.414 5.469 5.447 1.046 5.076zM399.077 515.671c-10.284-8.933-20.589-17.844-30.938-26.733 6.841-6.1 13.726-12.201 20.589-18.301 10.24 8.976 20.545 17.822 30.785 26.777-6.819 6.079-13.595 12.201-20.436 18.258zM396.637 529.354c-3.486-3.268 1.678-8.323 5.098-5.12 3.813 2.68-2.288 8.889-5.098 5.12zM356.701 479.003c-2.811-2.375-5.599-4.728-8.432-7.081-0.196-12.135-0.044-24.249-0.087-36.385 9.717 8.366 19.412 16.798 29.108 25.23-6.841 6.079-13.704 12.201-20.589 18.236zM353.411 492.315c-2.222-2.723 1.983-7.56 4.924-5.36 2.092 2.789-1.939 7.364-4.924 5.36zM357.158 193.068c-3.028-2.506-5.991-5.076-8.955-7.647-0.044-10.24 0-20.48-0.022-30.72 4.488-4.009 8.998-8.018 13.508-12.027 8.846 7.56 17.582 15.273 26.428 22.877-10.327 9.151-20.698 18.301-30.96 27.517zM358.727 201.652c1.046 3.159-0.174 4.379-3.638 3.66-1.133-3.225 0.087-4.445 3.638-3.66zM348.291 73.848c3.943-3.225 7.604-6.732 11.525-10 1.155 1.068 2.309 2.070 3.486 3.116-5.033 4.554-10.109 9.042-15.186 13.486 0.065-1.656 0.153-4.967 0.174-6.602zM348.16 53.891c2.309 1.983 4.619 4.031 6.972 5.97-2.266 2.135-4.597 4.205-6.928 6.231-0.022-4.052-0.022-8.127-0.044-12.201zM348.204 88.423c6.514-5.839 13.051-11.634 19.63-17.473 8.78 7.582 17.582 15.164 26.297 22.833-10.545 9.456-21.199 18.824-31.766 28.28-4.771-4.052-9.477-8.214-14.205-12.332 0.044-7.081 0-14.205 0.044-21.308zM368.727 57.224c3.573 1.373 1.373 7.56-2.288 5.599-3.704-1.482-1.59-7.538 2.288-5.599zM399.513 175.442c9.456 8.214 18.933 16.406 28.389 24.62-10.327 9.216-20.676 18.388-31.025 27.583-9.412-8.301-19.020-16.362-28.345-24.75 10.393-9.085 20.633-18.323 30.981-27.452zM397.399 167.097c-0.85-3.726 0.675-4.924 4.51-3.66 0.675 4.031-0.828 5.273-4.51 3.66zM443.327 136.486c4.423 4.096 9.826 7.451 13.334 12.353 0.523 8.519 0.065 17.038 0.131 25.556-5.621 4.989-11.242 10-16.863 14.968-9.456-8.192-18.933-16.384-28.389-24.62 10.589-9.434 21.199-18.846 31.788-28.258zM441.649 127.989c-1.155-3.769 0.283-5.098 4.292-3.987 1.155 3.617-0.283 4.946-4.292 3.987zM456.748 287.428c0.044 1.329 0.131 3.987 0.174 5.316-5.055-4.227-10.022-8.541-14.968-12.92 1.002-0.806 1.983-1.656 2.898-2.614 4.009 3.377 7.865 6.885 11.896 10.218zM449.492 273.245c2.418-2.222 4.902-4.379 7.386-6.536-0.065 4.292-0.065 8.584-0.065 12.854-2.462-2.048-4.924-4.183-7.321-6.318zM438.054 263.331c-9.913-8.606-19.848-17.212-29.74-25.818 10.349-9.129 20.633-18.367 31.003-27.517 5.904 5.076 11.809 10.175 17.604 15.382-0.196 7.168 0 14.292-0.153 21.439-6.297 5.447-12.506 10.981-18.715 16.515zM439.47 271.741c1.089 3.268-0.087 4.51-3.508 3.726-1.133-3.225 0.022-4.488 3.508-3.726zM388.75 450.593c-9.739-8.388-19.412-16.82-29.086-25.251 10.828-9.565 21.569-19.216 32.441-28.781 9.652 8.453 19.412 16.798 29.042 25.251-10.828 9.586-21.613 19.173-32.398 28.781zM388.924 462.924c-3.29-1.503-3.312-3.072-0.109-4.75 3.312 1.569 3.333 3.159 0.109 4.75zM396.266 248.255c9.935 8.562 19.87 17.168 29.74 25.796-11.46 10.24-22.986 20.415-34.467 30.676-9.957-8.562-19.848-17.212-29.783-25.796 11.482-10.24 23.007-20.458 34.511-30.676zM394.763 239.67c-1.002-3.333 0.24-4.532 3.66-3.551 0.915 3.312-0.283 4.51-3.66 3.551zM389.49 316.819c-1.133-3.181 0.022-4.401 3.508-3.595 1.155 3.268-0.022 4.466-3.508 3.595zM419.949 350.524c-9.477 8.475-18.998 16.885-28.476 25.36-9.761-8.323-19.412-16.82-29.13-25.208 9.499-8.453 19.020-16.885 28.519-25.339 9.739 8.345 19.369 16.798 29.086 25.186zM386.854 308.54c-0.588 0.697-1.787 2.179-2.375 2.919-8.693-6.885-16.82-14.423-25.317-21.526-1.983-1.874-7.321-5.708-1.83-6.667 10.109 8.105 19.5 17.038 29.522 25.273zM386.135 318.845c-0.675 2.484-2.004 4.597-3.965 6.253-8.083 7.299-16.297 14.423-24.423 21.678-0.566-0.523-1.656-1.59-2.201-2.113 10.262-8.519 19.26-18.606 30.589-25.818zM387.421 380.525c-0.806 0.218-2.375 0.632-3.159 0.85-7.321-5.164-13.53-11.7-20.524-17.277-3.028-2.941-7.56-5.381-7.713-10.066 11.177 7.952 21.025 17.582 31.395 26.493zM384.545 389.981c0.741 0.654 2.244 1.983 2.963 2.658-9.172 8.127-18.323 16.253-27.43 24.445-2.375 1.808-4.837 5.055-8.345 3.028 9.957-10.959 21.962-19.979 32.812-30.132zM356.308 430.766c9.652 8.41 20.741 15.796 28.323 26.123-6.231-1.808-10.305-6.907-15.12-10.806-5.817-5.251-12.201-10-17.343-15.948 1.024 0.131 3.116 0.479 4.14 0.632zM393.020 456.933c2.876-5.73 8.279-9.499 12.963-13.748 7.103-6.057 13.726-12.724 21.351-18.192-0.261 5.948-6.623 8.584-10.196 12.484-8.17 6.297-14.597 14.99-24.118 19.456zM398.576 467.064c9.499 8.366 19.303 16.428 28.498 25.099-4.445 1.808-7.124-2.68-10.153-4.902-8.039-7.321-16.645-13.987-24.336-21.7 2.179-0.327 4.488-0.436 5.991 1.503zM425.984 417.825c-9.87-8.192-19.412-16.776-29.195-25.099 0.479-0.588 1.438-1.808 1.917-2.418 9.891 8.279 19.5 16.863 29.282 25.23-0.501 0.588-1.503 1.721-2.004 2.288zM395.918 379.85c8.802-7.626 17.299-15.6 26.145-23.16 1.656-2.244 3.943-1.285 5.861-0.044-9.565 8.715-19.303 17.168-28.912 25.796-0.784-0.675-2.309-1.939-3.094-2.593zM424.415 346.428c-9.521-8.083-18.715-16.515-28.432-24.38 0.153-1.525 0.893-2.702 2.309-3.573 9.652 8.606 19.587 16.929 29.238 25.535-0.784 0.632-2.353 1.83-3.116 2.418zM396.070 308.518c10-8.584 19.696-17.495 29.565-26.232 2.135-2.179 4.902-3.486 7.843-4.336-10.153 12.375-23.617 21.722-35.186 32.812-0.566-0.566-1.678-1.678-2.222-2.244zM430.015 269.105c-10.175-7.778-19.369-16.689-29.151-24.903 0.675-0.654 2.004-2.048 2.68-2.702 10.196 9.042 21.264 17.255 30.48 27.278-1.002 0.087-3.007 0.24-4.009 0.327zM401.43 234.202c1.743-5.578 7.015-8.628 11.046-12.484 7.255-6.079 13.77-13.029 21.657-18.301 0.065 4.946-5.185 7.342-8.192 10.545-8.257 6.623-15.229 14.924-24.511 20.24zM439.732 197.229c3.181 1.525 3.159 3.116-0.087 4.75-3.181-1.46-3.159-3.072 0.087-4.75zM443.828 206.096c0.719-0.719 2.157-2.113 2.876-2.811 3.333 2.854 6.667 5.686 10 8.541 0.065 1.307 0.261 3.922 0.37 5.229-4.706-3.355-8.693-7.451-13.247-10.959zM416.812 152.151c-3.922 3.333-7.386 7.626-12.746 8.584 5.926-8.061 14.467-13.77 21.635-20.72 4.314-3.333 7.778-8.758 13.835-9.020-6.819 7.822-15.207 14.031-22.724 21.155zM408.881 170.583c8.715 7.277 17.495 14.641 25.709 22.484-0.196 0.893-0.588 2.614-0.784 3.486-10.589-8.236-21.177-16.842-30.328-26.668 1.351 0.174 4.052 0.523 5.403 0.697zM360.949 198.253c7.517-7.974 16.253-14.728 24.249-22.267 3.094-2.462 5.795-6.253 10.262-6.166-6.602 8.41-15.621 14.532-23.225 21.983-3.464 2.571-6.34 7.168-11.286 6.449zM392.584 161.454c-8.432-7.451-17.212-14.51-25.404-22.201-1.373-2.549 2.985-4.096 4.052-1.46 8.236 6.907 16.231 14.096 24.38 21.112-0.763 0.654-2.288 1.895-3.028 2.549zM366.287 126.922c9.761-9.369 20.001-18.301 30.262-27.147 1.242-0.501 3.791-1.482 5.033-1.961-6.776 8.976-16.428 15.338-24.402 23.203-3.399 2.309-6.057 7.669-10.894 5.904zM363.999 130.669c0.915 3.29-0.349 4.423-3.769 3.442-0.915-3.225 0.327-4.401 3.769-3.442zM355.11 128.316c-2.397-1.264-4.662-2.658-6.863-4.205-0.044-2.092-0.065-4.227-0.065-6.362 3.246 2.789 6.471 5.643 9.717 8.453-0.697 0.523-2.092 1.59-2.789 2.113zM356.766 136.399c-0.806 4.75-5.36 7.124-8.497 10.284-0.022-1.329-0.022-4.009-0.044-5.36 2.723-1.83 5.599-3.399 8.541-4.924zM374.719 216.293c5.73 5.599 13.007 9.826 17.452 16.558l-2.462 1.177c-9.891-8.41-21.373-15.926-28.803-26.559 6.035 0.087 9.456 5.578 13.813 8.824zM392.345 242.437c-10.393 12.114-23.617 21.569-35.186 32.594-0.545-0.566-1.656-1.656-2.244-2.201 9.935-8.65 19.674-17.43 29.5-26.21 2.135-2.157 4.902-3.551 7.931-4.183zM379.468 315.403c-10.153 8.562-19.347 18.345-30.306 25.905-2.026-17.168-0.675-34.62-0.784-51.897 11.199 7.647 20.633 17.43 31.090 25.992zM349.162 360.306c11.111 7.538 20.48 17.255 30.807 25.796-10.61 9.347-21.112 18.824-31.766 28.171 0.523-17.974-1.22-36.101 0.959-53.967zM383.608 464.057c0.087 4.379-4.27 6.645-6.95 9.456-5.12 4.096-9.347 9.782-15.948 11.656 6.013-8.475 14.641-14.881 22.898-21.112zM363.76 493.47c10.763 8.41 20.763 17.757 31.178 26.624-1.046 0.61-3.094 1.852-4.14 2.462-10.719-8.541-20.807-17.757-31.156-26.733 1.046-0.61 3.094-1.765 4.118-2.353zM423.849 501.836c1.046 0.523 3.116 1.569 4.161 2.092-6.776 6.362-13.791 12.506-20.72 18.715-0.915-0.719-2.723-2.244-3.638-2.985 6.798-5.861 13.116-12.266 20.197-17.822zM456.791 472.075c0.022 1.634 0.065 4.88 0.087 6.514-6.1 4.88-11.83 10.131-17.473 15.513-1.373-0.915-2.745-1.852-4.074-2.767 7.103-6.471 14.292-12.876 21.46-19.26zM456.813 486.367c0.044 7.756 0 15.513 0 23.269-4.445-3.791-8.824-7.626-13.247-11.482 4.445-3.9 8.802-7.887 13.247-11.787zM439.928 503.231c5.883 4.314 11.003 9.543 16.624 14.162 0.174 1.111 0.479 3.333 0.654 4.445-7.255-5.904-14.445-11.939-21.155-18.432 0.98-0.044 2.898-0.131 3.878-0.174zM438.403 428.413c-0.131-0.937-0.327-2.745-0.436-3.66 6.689 6.362 16.798 10.763 19.696 19.957-6.885-4.859-13.399-10.327-19.26-16.297zM444.002 421.55c4.249-3.813 8.541-7.604 12.811-11.417 0.044 7.473 0 14.99 0.044 22.484-4.336-3.66-8.584-7.386-12.854-11.068zM439.427 417.585c-0.763-0.697-1.503-1.416-2.244-2.113 6.994-5.447 12.462-13.029 20.872-16.471-4.445 7.713-12.332 12.506-18.628 18.585zM456.813 390.068c-8.061 7.19-16.123 14.336-24.184 21.526-9.761-8.345-19.391-16.82-29.108-25.208 9.499-8.236 18.606-16.885 28.258-24.946 8.976 6.231 16.624 14.205 25.077 21.112 0 1.874-0.044 5.643-0.044 7.517zM429.927 348.519c2.767-2.702 7.386 1.394 4.662 4.249-2.658 2.397-8.148-1.503-4.662-4.249zM456.225 318.105c-7.778 7.56-16.253 14.401-24.206 21.765-9.739-8.388-19.369-16.863-29.13-25.23 11.504-10.24 23.029-20.415 34.511-30.655 6.602 5.599 13.247 11.199 19.565 17.125-0.436 5.643 0.61 11.504-0.741 16.994zM442.237 269.628c3.442-6.384 9.608-10.785 15.447-14.968-1.895 7.255-8.976 11.896-15.447 14.968zM456.116 203.7c-2.985-0.501-4.445-2.309-4.314-5.381 0.98-0.915 2.985-2.702 4.009-3.617 2.767 1.721 2.527 6.95 0.305 8.998zM446.050 195.878c-0.261-1.329-1.612-3.094 0.109-4.096 3.442-3.399 7.233-6.754 11.743-8.715-2.375 5.469-7.364 9.063-11.852 12.811zM456.813 140.19c-3.007-2.549-5.97-5.164-8.911-7.822 0.741-0.632 2.201-1.939 2.963-2.593 2.113 1.612 4.205 3.312 6.035 5.251-0.087 1.721-0.109 3.464-0.087 5.164zM410.58 89.382c2.658-5.708 8.127-9.281 12.593-13.552 4.096-3.181 7.517-7.952 13.072-8.628-7.538 8.323-15.73 16.711-25.665 22.179zM413.086 96.877c8.955 7.8 18.040 15.469 26.842 23.443-0.937 0.414-2.789 1.198-3.726 1.59-9.107-6.907-17.343-14.924-26.079-22.31 0.741-0.675 2.222-2.026 2.963-2.723zM431.932 126.551c-10.61 9.434-21.221 18.89-31.809 28.28-8.824-7.604-17.561-15.251-26.406-22.833 10.61-9.434 21.243-18.911 31.853-28.302 8.78 7.604 17.604 15.207 26.363 22.855zM398.358 88.903c-9.281-7.429-19.195-14.685-26.471-24.097 1.373 0.327 4.14 0.959 5.512 1.285 8.453 7.168 17.255 14.075 24.75 22.223-0.937 0.153-2.854 0.436-3.791 0.588zM375.438 56.222c-0.915-0.763-2.723-2.331-3.638-3.116 7.669-6.776 15.251-13.661 23.007-20.371l2.571 3.159c-6.34 7.713-14.815 13.399-21.94 20.327zM367.267 49.119c-6.362-5.425-12.658-10.981-19.020-16.449-0.131-13.203-0.044-26.406-0.044-39.609 13.878 12.005 27.713 24.053 41.614 36.058-7.517 6.689-15.033 13.356-22.55 20.001zM348.291 40.644c4.946 4.357 10 8.606 14.881 13.029-5.883 3.943-10.044-4.815-15.12-6.776 0.065-2.092 0.153-4.183 0.24-6.253zM348.204 221.064c2.702-2.462 5.469-4.924 8.279-7.342 9.499 8.17 18.933 16.384 28.345 24.598-11.83 10.436-23.399 21.177-35.513 31.265-2.484-15.992-0.501-32.354-1.111-48.52zM351.581 277.057c1.917 3.551 0.85 4.946-3.203 4.249-1.939-3.747-0.871-5.164 3.203-4.249zM348.378 547.72c2.68 2.658 5.469 5.207 8.039 7.996-2.789-0.479-5.578-1.046-8.41-1.743 0.087-1.547 0.261-4.684 0.37-6.253zM348.269 569.115c1.787-1.503 3.573-3.007 5.381-4.532 0.85 0.784 2.549 2.375 3.355 3.159-2.919 2.636-5.861 5.273-8.846 7.865 0.022-1.634 0.065-4.859 0.109-6.493zM390.71 531.51c1.046 0.523 3.159 1.59 4.183 2.135-8.693 7.691-16.885 15.948-26.101 23.073l-4.357-1.089c8.061-8.737 17.234-16.384 26.275-24.118zM397.552 591.295c-6.34 0.937-9.848-5.948-14.489-9.042-5.425-5.817-14.249-9.434-16.602-17.408 11.286 7.604 21.243 17.125 31.090 26.45zM373.019 561.381c8.715-7.778 17.408-15.578 26.101-23.378 9.565 8.257 19.151 16.493 28.694 24.794-8.715 7.8-17.495 15.513-26.188 23.356-9.586-8.17-19.107-16.471-28.607-24.772zM430.298 568.701c1.264-0.436 3.747-1.373 4.989-1.852-4.597 6.427-11.133 11.068-16.842 16.406-4.009 3.29-7.451 7.974-12.985 8.584 7.277-8.65 16.384-15.621 24.837-23.138zM432.651 558.331c-10.305-8.083-20.981-16.253-29.413-26.254l4.488-0.458c10.066 7.299 18.911 16.166 28.519 24.097l-3.595 2.614zM411.866 526.587c6.798-6.057 13.573-12.157 20.371-18.214 8.17 7.212 16.428 14.249 24.62 21.417 0 1.83 0 5.425 0 7.255-5.425 4.771-10.828 9.586-16.21 14.401-9.63-8.236-19.26-16.515-28.781-24.859zM458.12 546.173c-3.268 3.835-7.321 12.288-13.486 9.804 4.118-3.704 7.843-8.345 13.486-9.804zM436.899 357.409c0.545-0.828 1.612-2.484 2.157-3.312 6.558 6.122 14.99 10.85 19.282 18.933-8.998-1.961-14.118-10.698-21.439-15.621zM448.294 121.671c2.004-4.096 5.73-7.015 9.804-8.976-1.569 4.445-4.793 8.323-9.804 8.976zM445.331 58.727c2.048-5.817 7.56-9.238 12.353-12.68-1.177 6.275-7.015 9.979-12.353 12.68zM456.791 38.204c-5.36 4.641-10.632 9.369-15.948 14.075-8.802-7.626-17.539-15.229-26.297-22.833 14.075-12.506 28.171-25.055 42.311-37.561-0.065 15.425 0.044 30.873-0.065 46.32zM436.725 57.181c-3.638 3.181-6.1-1.068-8.693-2.745-7.124-6.558-15.055-12.332-21.439-19.63l3.747-0.414c9.39 6.819 17.931 14.881 26.384 22.789zM428.816 62.998c-7.517 6.645-15.033 13.334-22.528 20.022-8.758-7.626-17.561-15.186-26.319-22.855 7.495-6.689 15.011-13.356 22.55-20.001 8.758 7.582 17.517 15.186 26.297 22.833zM401.299 31.733c-0.588-0.741-1.808-2.201-2.418-2.919 2.157-7.952 11.765 4.597 2.418 2.919zM352.844-15.959c14.902 12.702 29.631 25.622 44.468 38.433-0.763 0.632-2.288 1.939-3.050 2.593-15.295-13.268-30.567-26.602-45.927-39.805 0-0.153-0.022-0.436-0.022-0.632 1.503-0.24 3.028-0.37 4.532-0.588zM370.078 613.234c-8.976-6.885-17.147-14.728-25.818-22.005-4.662-0.959 1.351-7.19 2.789-2.832 8.955 7.734 17.953 15.425 26.689 23.399-0.915 0.349-2.745 1.068-3.66 1.438zM349.424 582.536c4.074-3.617 8.127-7.277 12.179-10.894 9.543 8.17 18.998 16.449 28.498 24.707-4.074 3.617-8.17 7.233-12.244 10.828-9.477-8.214-18.933-16.428-28.432-24.641zM397.53 600.903c-4.379 4.946-8.976 10.371-15.578 12.441 3.769-5.273 8.519-11.874 15.578-12.441zM383.608 622.385c6.798-4.662 11.591-11.7 18.432-16.428 5.861 5.425 11.765 10.785 17.669 16.231-12.048 0.109-24.075-0.196-36.101 0.196zM405.439 600.489c8.955 2.113 14.946 10.196 21.112 16.406-8.998-1.569-14.881-10.371-21.112-16.406zM430.538 611.339c-5.839-5.076-11.7-10.153-17.539-15.273 8.758-7.8 17.495-15.621 26.297-23.399 5.861 5.098 11.722 10.175 17.648 15.229-8.78 7.822-17.582 15.643-26.406 23.443zM474.025 593.669c-10.414-7.909-20.262-16.428-30.154-24.968 0.871-0.828 2.614-2.506 3.486-3.333 10.087 8.257 20.306 16.733 26.668 28.302zM410.166 25.001c-1.024-0.566-3.072-1.699-4.074-2.266 14.576-13.181 29.347-26.188 44.032-39.261 2.092 0.283 4.183 0.523 6.275 0.85-15.534 13.443-30.437 27.583-46.233 40.677zM348.596 676.766c-0.022 5.752 0 4.793 0 21.787 41.505 0.261 67.431 0.327 108.936 0 0.697-5.73-0.261-16.014 0-21.787-41.831-0.523-67.105-0.61-108.936 0zM348.596 720.34c-0.414 5.817-0.436 16.014 0 21.787 41.701 0.588 67.214 0.806 108.936 0-0.044-5.774 0.436-16.035 0-21.787-41.614 0-67.301 0.044-108.936 0zM355.764 750.036c-0.566 5.316-0.174 10.654-0.305 15.97 5.991 0.784 12.070 0.37 18.083 0.588-0.153 3.726-0.065 7.429 0.131 11.133 5.12 0.828 10.349 0.479 15.513 0.784 0.065 5.12-0.305 10.284 0.458 15.382 2.201 8.214 8.671 15.186 8.41 23.988 3.595 129.721-2.549 81.898-5.883 120.331 0.479 6.079-6.58 19.783 21.787 21.787 8.955-2.244-7.931-8.301-3.072-142.663 2.375-9.151 7.081-17.778 12.027-25.861 0.087-4.336 0.087-8.693 0.174-13.051 3.878 0.022 7.778 0.022 11.656-0.392 0.37-3.791 0.436-7.626 0.436-11.46 6.013-0.153 12.092 0.174 18.040-0.654 0-5.207 0.065-10.458-0.022-15.665-32.441-0.675-64.948-0.305-97.433-0.218z" />
<glyph unicode="&#xe904;" glyph-name="calendar" horiz-adv-x="1117" d="M1033.728-64h-950.365c-46.685 0-83.363 36.445-83.363 82.851v752.268c0 46.383 46.406 95.791 93.091 95.791h93.091l13.894 46.685c0 24.855 20.015 46.406 46.685 46.406h66.7c24.995 0 46.685-19.875 46.685-46.406l12.218-46.685h372.364l18.897 46.685c0 24.855 20.015 46.406 46.685 46.406h66.7c24.995 0 46.685-19.875 46.685-46.406l7.215-46.685h93.091c46.685 0 93.091-49.408 93.091-95.791v-752.268c0-46.406-36.678-82.851-83.363-82.851zM1067.078 772.771c0 18.223-15.011 33.14-33.35 33.14h-113.385v-44.753c0-24.855-19.991-46.383-46.685-46.383h-66.676c-25.018 0-46.685 19.875-46.685 46.383v44.753h-401.827v-44.753c0-24.855-20.015-46.383-46.685-46.383h-66.7c-24.995 0-46.685 19.875-46.685 46.383v43.101h-115.037c-18.339 0-33.35-14.918-33.35-31.488v-134.214h1017.065v134.214zM1067.078 587.194h-1017.065v-543.418c0-18.223 15.011-33.14 33.35-33.14h950.365c18.339 0 33.35 13.265 33.35 31.488v545.071zM836.771 98.909h-79.407c-12.963 0-24.297 36.631-24.297 51.2 0 14.545 11.334 27.276 24.297 27.276h79.407c14.592 0 24.32-12.73 24.32-27.276 0-14.569-11.334-51.2-24.32-51.2zM836.771 257.489h-79.407c-12.963 0-24.297 36.655-24.297 51.2s11.334 27.276 24.297 27.276h79.407c14.592 0 24.32-12.73 24.32-27.276s-11.334-51.2-24.32-51.2zM836.771 416.070h-79.407c-12.963 0-24.297 36.655-24.297 51.2s11.334 27.276 24.297 27.276h79.407c14.592 0 24.32-12.73 24.32-27.276s-11.334-51.2-24.32-51.2zM609.885 98.909h-79.407c-12.963 0-24.32 36.631-24.32 51.2 0 14.545 11.357 27.276 24.32 27.276h79.407c14.592 0 24.32-12.73 24.32-27.276 0-14.569-11.357-51.2-24.32-51.2zM609.885 257.489h-79.407c-12.963 0-24.32 36.655-24.32 51.2s11.357 27.276 24.32 27.276h79.407c14.592 0 24.32-12.73 24.32-27.276s-11.357-51.2-24.32-51.2zM609.885 416.070h-79.407c-12.963 0-24.32 36.655-24.32 51.2s11.357 27.276 24.32 27.276h79.407c14.592 0 24.32-12.73 24.32-27.276s-11.357-51.2-24.32-51.2zM382.999 98.909h-79.43c-12.963 0-24.297 36.631-24.297 51.2 0 14.545 11.334 27.276 24.297 27.276h79.43c14.592 0 24.297-12.73 24.297-27.276 0-14.569-11.334-51.2-24.297-51.2zM382.999 257.489h-79.43c-12.963 0-24.297 36.655-24.297 51.2s11.334 27.276 24.297 27.276h79.43c14.592 0 24.297-12.73 24.297-27.276s-11.334-51.2-24.297-51.2zM382.999 416.070h-79.43c-12.963 0-24.297 36.655-24.297 51.2s11.334 27.276 24.297 27.276h79.43c14.592 0 24.297-12.73 24.297-27.276s-11.334-51.2-24.297-51.2z" />
<glyph unicode="&#xe905;" glyph-name="chat" horiz-adv-x="1095" d="M798.332 620.809c0-9.746-11.794-13.912-21.504-13.912h-459.034c-9.71 0-21.504 4.167-21.504 13.912 0 9.71 11.794 21.398 21.504 21.398h459.034c9.71 0 21.504-11.652 21.504-21.398zM776.828 500.966h-459.034c-9.71 0-21.504-20.621-21.504-30.367 0-9.781 11.794-4.943 21.504-4.943h459.034c41.666 0 41.666 35.31 0 35.31zM635.586 359.724h-317.793c-9.71 0-21.504-29.59-21.504-39.371 0-9.746 11.794 4.061 21.504 4.061h317.793c9.71 0 35.31-9.746 35.31 0 0 9.781-25.6 35.31-35.31 35.31zM1094.621 493.444c0-257.201-245.513-466.556-547.31-466.556-43.361 0-87.57 4.767-131.743 14.159l-308.259-103.283c-3.602-1.165-7.38-1.766-11.052-1.766-9.534 0-18.926 3.919-25.671 11.193-9.322 10.028-12.006 24.682-6.815 37.429l79.307 194.136c-92.442 86.087-143.078 196.89-143.078 314.686 0 257.236 245.513 466.556 547.31 466.556s547.31-209.32 547.31-466.556zM1024.424 493.444c0 218.359-214.051 396.006-477.113 396.006s-477.113-177.646-477.113-396.006c0-104.589 48.799-203.211 137.463-277.857 11.723-9.887 15.748-26.236 9.887-40.43l-59.745-146.114 244.736 81.991c6.073 2.013 12.641 2.33 18.785 0.918 42.372-9.64 84.71-14.477 125.987-14.477 263.062 0 477.113 177.646 477.113 395.97z" />
<glyph unicode="&#xe906;" glyph-name="check" horiz-adv-x="1372" d="M1371.424 886.677c4.137-14.941 1.264-32.065-8.045-44.132-6.666-8.62-14.596-16.090-21.836-24.135-108.951-117.455-158.829-171.011-267.78-288.582-287.203-310.993-309.499-333.403-533.606-575.325-5.976-6.666-12.757-12.987-21.262-15.86-15.86-6.091-34.593-1.149-46.316 11.837-165.84 179.976-202.616 250.656-183.883 230.084-108.031 116.651-156.99 169.402-264.907 286.053-6.781 7.585-14.711 14.251-18.963 23.905-8.39 17.584-5.172 40.684 7.93 54.705 42.178 45.511 84.242-2.873 126.535 42.638 16.664 18.273 46.775 17.699 62.865-1.034 110.56-119.409 162.047-174.919 272.607-294.213 8.39-8.849 15.86-19.423 26.893-24.479 16.894-8.16 37.926-3.333 50.453 11.263 115.042 123.776 505.219 545.444 620.261 669.335 16.435 18.158 46.201 18.044 62.52-0.345 40.914-44.017 81.713 5.631 122.742-38.501 6.091-6.551 11.493-14.136 13.791-23.215z" />
<glyph unicode="&#xe907;" glyph-name="eifel" horiz-adv-x="848" d="M583.28 750.904c-6.576 2.84-16.816-9.92-19.576-16.328-2.768-6.424 0.176-13.872 6.56-16.664 146.256-63.624 244.528-206.616 244.528-355.84 0-95.44-35.968-184.16-94.624-253.112l-3.856 5.376c-19.088 26.632-83.736 122.936-97.928 146.48h2.584c5.688 0 10.288 4.616 10.288 10.32v72.248c0 5.704-4.6 10.32-10.288 10.32h-55.032c-14.152 31.872-25.064 58.872-33.688 83.352 3.768 1.528 6.432 5.2 6.432 9.536v72.248c0 5.696-4.6 10.32-10.288 10.32h-34.904c-14.904 70.456-23.304 143.28-25.032 216.744h8.504c5.688 0 10.288 4.624 10.288 10.32v72.248c0 5.704-4.6 10.32-10.288 10.32h-12.472c-3.808 14.56-15.312 25.928-29.936 29.408v81.56c0 5.696-4.608 10.32-10.288 10.32s-10.288-4.624-10.288-10.32v-82.128c-13.752-3.976-24.472-14.912-28.112-28.84h-11.768c-5.672 0-10.28-4.616-10.28-10.32v-72.248c0-5.696 4.608-10.32 10.28-10.32h8.728c-1.728-73.472-10.152-146.304-25.064-216.744h-35.096c-5.672 0-10.28-4.624-10.28-10.32v-72.248c0-4.336 2.664-8.008 6.424-9.536-8.68-24.68-19.592-51.664-33.672-83.352h-55.048c-5.672 0-10.28-4.616-10.28-10.32v-72.248c0-5.704 4.608-10.32 10.28-10.32h2.544c-14.608-24.288-83.216-121.976-104.664-151.664-58.744 68.92-94.752 157.568-94.752 252.92 0 149.072 98.264 292.064 244.528 355.856 6.392 2.784 9.32 10.248 6.552 16.664-2.768 6.408-13.088 19.16-19.576 16.312-158.344-69.248-264.72-224.984-264.72-387.536 0-231.704 194.472-427.456 424.656-427.456 233.44 0 423.344 191.76 423.344 427.456 0 162.72-106.376 318.44-264.72 387.536zM369.272 353.704c13.496 30.848 24.296 58.112 32.68 82.568h9.064c-8.632-24.4-19.592-51.584-33.352-82.568h-8.392zM425.528 415.872c7.080-18.992 15.568-39.688 25.4-62.168h-50.792c9.84 22.512 18.328 43.192 25.392 62.168zM473.392 353.704c-13.736 30.92-24.688 58.12-33.352 82.568h9.056c8.416-24.512 19.216-51.768 32.688-82.568h-8.392zM504.248 353.704c-13.728 30.92-24.68 58.12-33.336 82.568h39.84c8.392-24.512 18.928-51.184 32.68-82.568h-39.184zM425.168 848.76c7.376 0 13.776-4.032 17.304-9.968h-34.616c3.544 5.936 9.936 9.968 17.312 9.968zM384.384 818.152h82.288v-51.6h-82.288v51.6zM403.408 745.904h44.464c1.696-73.424 9.976-146.224 24.624-216.744h-93.736c14.656 70.528 22.944 143.32 24.648 216.744zM332.952 508.52h185.152v-51.608h-185.152v51.608zM340.304 436.272h39.856c-8.632-24.4-19.6-51.584-33.352-82.568h-39.16c13.664 31.192 24.208 57.856 32.656 82.568zM240.376 333.064h370.304v-51.608h-370.304v51.608zM230.128 23.152c0.832 0.688 1.792 1.192 2.448 2.12 30.48 43.056 89.584 154.84 121.184 169.032-20.104-20.712-66.296-140.728-89.808-188.976-11.568 5.392-22.856 11.352-33.824 17.824zM287.176-4.64c44.992 91.912 100.96 213.848 138.352 213.848 36.944 0 89.792-122.040 135.4-214.152-42.664-16.584-88.624-25.792-136.288-25.792-48.088 0-94.456 9.32-137.464 26.096zM584.16 5.032c-23.344 47.352-66.256 167.216-85.968 187.912 31.128-14.624 87.616-126.696 117.304-167.776 0.696-0.968 1.616-1.608 2.496-2.304-10.968-6.488-22.248-12.432-33.832-17.832zM637.976 35.416c-0.368 1.624-1.048 3.208-2.096 4.656-56.384 78.016-143.264 189.776-210.352 189.776-69.016 0-157.424-110.688-213.496-189.88-0.936-1.32-1.512-2.776-1.88-4.248-23.448 15.792-45.152 34.040-64.8 54.32 25.984 35.968 94 140.592 111.176 170.776h337.992c16.088-28.28 79.128-130.288 101.352-161.296l6.952-9.704c-19.656-20.328-41.392-38.6-64.848-54.4zM497.536 487.88v-10.32c0-5.712-4.6-10.328-10.288-10.328s-10.288 4.616-10.288 10.328v10.32c0 5.704 4.6 10.32 10.288 10.32s10.288-4.616 10.288-10.32zM466.672 487.88v-10.32c0-5.712-4.592-10.328-10.28-10.328s-10.288 4.616-10.288 10.328v10.32c0 5.704 4.6 10.32 10.288 10.32s10.28-4.616 10.28-10.32zM435.816 487.88v-10.32c0-5.712-4.608-10.328-10.288-10.328s-10.288 4.616-10.288 10.328v10.32c0 5.704 4.608 10.32 10.288 10.32s10.288-4.616 10.288-10.32zM404.96 487.88v-10.32c0-5.712-4.608-10.328-10.288-10.328s-10.288 4.616-10.288 10.328v10.32c0 5.704 4.608 10.32 10.288 10.32s10.288-4.616 10.288-10.32zM456.392 797.512v-10.28c0-5.696-4.6-10.32-10.288-10.32s-10.288 4.624-10.288 10.32v10.28c0 5.696 4.6 10.32 10.288 10.32s10.288-4.624 10.288-10.32zM415.24 797.512v-10.28c0-5.696-4.608-10.32-10.28-10.32-5.68 0-10.288 4.624-10.288 10.32v10.28c0 5.696 4.608 10.32 10.288 10.32 5.672 0 10.28-4.624 10.28-10.32zM374.096 487.88v-10.32c0-5.712-4.608-10.328-10.28-10.328-5.68 0-10.288 4.616-10.288 10.328v10.32c0 5.704 4.608 10.32 10.288 10.32 5.672 0 10.28-4.616 10.28-10.32z" />
<glyph unicode="&#xe908;" glyph-name="gift" horiz-adv-x="1158" d="M1086.397 407.663h-13.446v-401.608c0-38.645-31.922-70.055-71.146-70.055h-846.069c-39.224 0-71.146 31.41-71.146 70.055v401.608h-13.423c-39.246 0-71.168 31.41-71.168 70.033v158.765c0 38.623 31.922 70.033 71.168 70.033h1015.251c39.224 0 71.146-31.41 71.123-70.033v-158.765c0-38.623-31.922-70.033-71.146-70.033zM681.583-7.969h320.223c7.836 0 14.225 6.278 14.225 14.024v401.586h-334.447v-415.61zM476.004 650.463h-404.814c-7.858 0-14.247-6.3-14.247-14.002v-158.787c0-7.702 6.389-14.002 14.225-14.002h404.836v186.791zM476.004 407.663h-334.47v-401.608c0-7.747 6.367-14.024 14.225-14.024h320.245v415.633zM1100.622 636.461c0 7.725-6.389 14.002-14.225 14.002h-404.814v-186.791h404.814c7.836 0 14.225 6.3 14.225 14.002v158.787zM806.845 749.991c-76.6-13.601-161.703-15.627-205.646-15.627-14.269 0-22.684 0.2-22.684 0.2-0.312 0.022-0.601 0.156-0.89 0.178-0.312-0.022-0.579-0.156-0.89-0.156 0 0-8.237-0.223-22.283-0.223-301.212 0-364.41 69.877-364.433 128.49 0 59.014 45.479 97.146 115.801 97.146 69.721 0 179.601-40.96 271.983-153.578 94.030 112.64 205.779 153.578 276.614 153.578 71.324 0 117.426-38.133 117.426-97.146 0-55.474-55.519-93.451-164.998-112.863zM305.82 903.969c-21.971 0-58.858-5.343-58.858-41.116 0-38.957 111.26-67.985 269.579-71.992-71.635 77.757-154.134 113.107-210.721 113.107zM854.439 903.969c-57.767 0-141.891-35.35-214.951-113.041 42.095 1.135 102.801 4.541 157.251 14.18 73.995 13.156 118.183 34.727 118.183 57.745 0 35.773-37.888 41.116-60.483 41.116z" />
<glyph unicode="&#xe909;" glyph-name="pin" horiz-adv-x="585" d="M292.571 960c-161.609 0-292.571-129.755-292.571-289.682 0-8.265 0.475-16.347 1.134-24.43 0.256-2.889 0.622-5.888 0.987-8.667 0.512-4.901 1.134-9.691 1.975-14.482 0.622-3.803 1.243-7.534 2.011-11.264 0.549-2.56 1.207-5.12 1.755-7.68 26.624-114.615 116.699-206.519 186.149-363.922 20.773-47.104 38.912-97.573 53.723-143.689l44.837-160.183 44.8 160.219c14.885 46.080 32.987 96.585 53.76 143.689 69.413 157.367 159.561 249.307 186.039 363.922 0.695 2.56 1.207 5.12 1.755 7.68 0.731 3.694 1.426 7.424 2.048 11.264 0.768 4.754 1.536 9.582 2.048 14.446 0.366 2.816 0.731 5.778 0.951 8.667 0.731 8.119 1.17 16.201 1.17 24.466 0 159.89-130.962 289.646-292.571 289.646zM292.535 539.392c-72.997 0-132.206 58.697-132.206 130.962 0 72.302 59.209 130.889 132.206 130.889 73.033 0 132.279-58.587 132.279-130.889 0-72.265-59.209-130.962-132.279-130.962z" />
<glyph unicode="&#xe90b;" glyph-name="ring" horiz-adv-x="920" d="M919.128 147.862c-4.59-15.96-18.856-35.31-35.31-35.31h-282.377c-0.035 1.024-0.106 2.083-0.106 0 0-97.986-44.35-176.552-141.241-176.552-96.856 0-141.241 78.566-141.241 176.552h-282.483c-16.455 0-30.72 19.35-35.31 35.31-4.59 15.996 6.391 38.17 20.233 47.139 5.438 3.602 138.381 94.879 138.381 345.582 0 206.53 102.788 275.633 173.233 298.902 4.838 1.483 13.065 3.708 23.022 6.038-0.141 2.083-0.671 4.308-0.671 6.426 0 59.569 46.998 108.050 104.836 108.050 57.803 0 104.836-48.481 104.836-108.050 0-1.942-0.53-3.99-0.636-5.932 23.481-5.191 53.389-15.431 83.65-36.758 51.341-36.299 112.569-112.322 112.569-268.676 0-253.422 136.969-344.735 138.346-345.582 13.877-8.969 24.894-31.144 20.268-47.139zM389.473 77.241c0-46.362 24.788-70.621 70.621-70.621 45.868 0 70.621 24.258 70.621 70.621 0 4.167 0.565 31.285 0 35.31h-141.241c-0.565-4.025 0-31.144 0-35.31zM460.094 924.584c-38.841 0-70.409-32.521-70.479-72.492 36.758 5.756 86.51 8.828 140.888 0.53-0.388 39.759-31.779 71.962-70.409 71.962zM686.504 540.619c0 229.305-146.856 235.944-163.628 235.944h-125.246c-17.161 0-163.946-6.674-163.946-235.944 0-169.137-78.813-295.053-126.694-357.447h706.207c-47.846 62.393-126.694 188.31-126.694 357.447zM334.071 706.401c0 0-64.371-318.146-57.062-170.372 7.345 147.774 57.062 170.372 57.062 170.372zM601.335 112.552h0.106c0.035-1.024 0.035-2.013-0.106 0zM318.852 112.552c-0.318-4.061 0 0.212 0 0z" />
<glyph unicode="&#xe90c;" glyph-name="search" horiz-adv-x="1077" d="M1057.349 468.903c-54.067-152.847-200.413-248.773-356.96-248.773-40.96 0-82.66 6.554-123.567 20.401-197.137 66.752-301.624 277.154-233.393 470.009 54.067 152.847 200.413 248.773 356.907 248.773 41.013 0 82.66-6.554 123.567-20.401 197.137-66.699 301.624-277.154 233.446-470.009zM948.052 707.422c-32.187 64.69-88.156 113.314-157.656 136.833v0c-29.227 9.883-59.511 14.904-90.059 14.904-117.225 0-221.818-72.882-260.188-181.387-24.047-67.967-19.608-141.061 12.526-205.751 32.187-64.69 88.156-113.314 157.656-136.833 29.227-9.883 59.564-14.904 90.059-14.904 117.278 0 221.818 72.882 260.188 181.334 24.047 68.020 19.608 141.114-12.526 205.804zM347.711 359.659l103.061-111.358c12.579-13.636 11.522-34.882-2.378-47.196l-288.57-256.436c-13.847-12.314-35.516-11.31-48.148 2.325l-103.061 111.358c-12.579 13.636-11.522 34.882 2.378 47.249l288.57 256.383c13.9 12.314 35.569 11.31 48.148-2.325z" />
<glyph unicode="&#xe90d;" glyph-name="tag" d="M964.972 617.461c-29.059-29.104-65.536-48.037-105.131-55.319l-34.224-155.125c-1.479-6.758-4.87-12.948-9.762-17.84l-442.391-442.55c-6.804-6.804-15.997-10.627-25.623-10.627s-18.842 3.823-25.646 10.627l-311.592 311.66c-14.154 14.154-14.154 37.114 0 51.268l442.391 442.596c4.892 4.892 11.082 8.283 17.84 9.762l239.912 52.884c12.060 2.662 24.69-1.024 33.428-9.785l124.587-124.609c8.761-8.761 12.425-21.367 9.785-33.451l-0.683-3.026c13.084 6.212 25.327 14.268 35.863 24.804 49.948 49.971 49.948 131.254 0 181.202-24.189 24.212-56.343 37.524-90.544 37.547 0 0 0 0 0 0-34.224 0-66.355-13.335-90.544-37.547-14.154-14.154-37.092-14.131-51.268 0-14.154 14.177-14.154 37.137 0 51.291 37.888 37.888 88.246 58.778 141.813 58.778v0c53.567 0 103.925-20.89 141.79-58.778 78.234-78.234 78.234-205.505 0-283.762zM706.97 739.681l-210.193-46.308-338.239-338.375 260.324-260.392 338.239 338.352 28.513 129.32c-19.069 3.595-37.365 9.944-54.477 18.819-22.482-17.909-55.706-16.111-76.868 5.439-22.642 23.006-22.778 59.438-0.364 81.579 21.436 21.003 55.569 21.003 78.347 0.887 0.114-0.114 0.273-0.137 0.387-0.25 18.933-18.933 42.803-30.948 68.654-35.385l2.162 9.808-96.484 96.506z" />
</font></defs></svg>